{
   "assocWithClass" : [],
   "associations" : [],
   "classes" : [
      {
         "attributes" : [],
         "id" : "c23",
         "methods" : [],
         "name" : "Coffee_Cultivar",
         "position" : {
            "x" : 140,
            "y" : -70
         },
         "size" : {
            "height" : 80,
            "width" : 105
         }
      },
      {
         "attributes" : [],
         "id" : "c27",
         "methods" : [],
         "name" : "Coffea_Arabica",
         "position" : {
            "x" : 220,
            "y" : 230
         },
         "size" : {
            "height" : 80,
            "width" : 105
         }
      },
      {
         "attributes" : [],
         "id" : "c31",
         "methods" : [],
         "name" : "Cultivated_Indigenous",
         "position" : {
            "x" : 270,
            "y" : 410
         },
         "size" : {
            "height" : 80,
            "width" : 147
         }
      },
      {
         "attributes" : [],
         "id" : "c35",
         "methods" : [],
         "name" : "Gesha",
         "position" : {
            "x" : 380,
            "y" : 560
         },
         "size" : {
            "height" : 80,
            "width" : 105
         }
      },
      {
         "attributes" : [],
         "id" : "c39",
         "methods" : [],
         "name" : "Mocha",
         "position" : {
            "x" : 220,
            "y" : 560
         },
         "size" : {
            "height" : 80,
            "width" : 105
         }
      },
      {
         "attributes" : [],
         "id" : "c43",
         "methods" : [],
         "name" : "Maragorype",
         "position" : {
            "x" : 470,
            "y" : 650
         },
         "size" : {
            "height" : 80,
            "width" : 105
         }
      },
      {
         "attributes" : [],
         "id" : "c47",
         "methods" : [],
         "name" : "Pacas",
         "position" : {
            "x" : 100,
            "y" : 560
         },
         "size" : {
            "height" : 80,
            "width" : 105
         }
      },
      {
         "attributes" : [],
         "id" : "c51",
         "methods" : [],
         "name" : "Coffea_Eugenioides",
         "position" : {
            "x" : 50,
            "y" : 70
         },
         "size" : {
            "height" : 80,
            "width" : 126
         }
      },
      {
         "attributes" : [],
         "id" : "c55",
         "methods" : [],
         "name" : "Coffea_Canephora",
         "position" : {
            "x" : 330,
            "y" : 80
         },
         "size" : {
            "height" : 80,
            "width" : 112
         }
      },
      {
         "attributes" : [],
         "id" : "c59",
         "methods" : [],
         "name" : "Bourbon",
         "position" : {
            "x" : 80,
            "y" : 400
         },
         "size" : {
            "height" : 80,
            "width" : 105
         }
      },
      {
         "attributes" : [],
         "id" : "c63",
         "methods" : [],
         "name" : "Bourbon_Pointu",
         "position" : {
            "x" : -110,
            "y" : 570
         },
         "size" : {
            "height" : 80,
            "width" : 105
         }
      },
      {
         "attributes" : [],
         "id" : "c67",
         "methods" : [],
         "name" : "Pacamara",
         "position" : {
            "x" : 230,
            "y" : 720
         },
         "size" : {
            "height" : 80,
            "width" : 105
         }
      },
      {
         "attributes" : [],
         "id" : "c71",
         "methods" : [],
         "name" : "Typica",
         "position" : {
            "x" : 560,
            "y" : 400
         },
         "size" : {
            "height" : 80,
            "width" : 105
         }
      },
      {
         "attributes" : [],
         "id" : "c75",
         "methods" : [],
         "name" : "Java",
         "position" : {
            "x" : 610,
            "y" : 650
         },
         "size" : {
            "height" : 80,
            "width" : 105
         }
      },
      {
         "attributes" : [],
         "id" : "c79",
         "methods" : [],
         "name" : "Timor_Hybrid",
         "position" : {
            "x" : 750,
            "y" : 650
         },
         "size" : {
            "height" : 80,
            "width" : 105
         }
      },
      {
         "attributes" : [],
         "id" : "c83",
         "methods" : [],
         "name" : "Mundo_Novo",
         "position" : {
            "x" : 500,
            "y" : 860
         },
         "size" : {
            "height" : 80,
            "width" : 105
         }
      },
      {
         "attributes" : [],
         "id" : "c87",
         "methods" : [],
         "name" : "Catuai",
         "position" : {
            "x" : 300,
            "y" : 1020
         },
         "size" : {
            "height" : 80,
            "width" : 105
         }
      },
      {
         "attributes" : [],
         "id" : "c91",
         "methods" : [],
         "name" : "Villa_Sarchi",
         "position" : {
            "x" : -110,
            "y" : 670
         },
         "size" : {
            "height" : 80,
            "width" : 105
         }
      },
      {
         "attributes" : [],
         "id" : "c95",
         "methods" : [],
         "name" : "Caturra",
         "position" : {
            "x" : 10,
            "y" : 670
         },
         "size" : {
            "height" : 80,
            "width" : 105
         }
      },
      {
         "attributes" : [],
         "id" : "c99",
         "methods" : [],
         "name" : "Catimor",
         "position" : {
            "x" : 280,
            "y" : 1120
         },
         "size" : {
            "height" : 80,
            "width" : 105
         }
      },
      {
         "attributes" : [],
         "id" : "c103",
         "methods" : [],
         "name" : "Sarchimor",
         "position" : {
            "x" : 270,
            "y" : 1210
         },
         "size" : {
            "height" : 80,
            "width" : 105
         }
      }
   ],
   "inheritances" : [
      {
         "id" : "c107",
         "position" : {
            "x" : 240,
            "y" : 50
         },
         "size" : {
            "height" : 40,
            "width" : 40
         },
         "subClasses" : [
            "c51",
            "c55"
         ],
         "superClasses" : [
            "c23"
         ],
         "type" : ""
      },
      {
         "id" : "c173",
         "position" : {
            "x" : 310,
            "y" : 150
         },
         "size" : {
            "height" : 40,
            "width" : 40
         },
         "subClasses" : [
            "c27"
         ],
         "superClasses" : [
            "c55"
         ],
         "type" : ""
      },
      {
         "id" : "c221",
         "position" : {
            "x" : 200,
            "y" : 150
         },
         "size" : {
            "height" : 40,
            "width" : 40
         },
         "subClasses" : [
            "c27"
         ],
         "superClasses" : [
            "c51"
         ],
         "type" : ""
      },
      {
         "id" : "c269",
         "position" : {
            "x" : 290,
            "y" : 310
         },
         "size" : {
            "height" : 40,
            "width" : 40
         },
         "subClasses" : [
            "c31",
            "c59",
            "c71"
         ],
         "superClasses" : [
            "c27"
         ],
         "type" : ""
      },
      {
         "id" : "c353",
         "position" : {
            "x" : 320,
            "y" : 500
         },
         "size" : {
            "height" : 40,
            "width" : 40
         },
         "subClasses" : [
            "c39",
            "c35"
         ],
         "superClasses" : [
            "c31"
         ],
         "type" : ""
      },
      {
         "id" : "c419",
         "position" : {
            "x" : 100,
            "y" : 480
         },
         "size" : {
            "height" : 40,
            "width" : 40
         },
         "subClasses" : [
            "c63",
            "c47",
            "c91",
            "c95"
         ],
         "superClasses" : [
            "c59"
         ],
         "type" : ""
      },
      {
         "id" : "c521",
         "position" : {
            "x" : 180,
            "y" : 650
         },
         "size" : {
            "height" : 40,
            "width" : 40
         },
         "subClasses" : [
            "c67"
         ],
         "superClasses" : [
            "c47"
         ],
         "type" : ""
      },
      {
         "id" : "c569",
         "position" : {
            "x" : 370,
            "y" : 690
         },
         "size" : {
            "height" : 40,
            "width" : 40
         },
         "subClasses" : [
            "c67"
         ],
         "superClasses" : [
            "c43"
         ],
         "type" : ""
      },
      {
         "id" : "c617",
         "position" : {
            "x" : 590,
            "y" : 530
         },
         "size" : {
            "height" : 40,
            "width" : 40
         },
         "subClasses" : [
            "c79",
            "c43",
            "c75",
            "c83"
         ],
         "superClasses" : [
            "c71"
         ],
         "type" : ""
      },
      {
         "id" : "c719",
         "position" : {
            "x" : 440,
            "y" : 930
         },
         "size" : {
            "height" : 40,
            "width" : 40
         },
         "subClasses" : [
            "c87"
         ],
         "superClasses" : [
            "c83"
         ],
         "type" : ""
      },
      {
         "id" : "c767",
         "position" : {
            "x" : 160,
            "y" : 890
         },
         "size" : {
            "height" : 40,
            "width" : 40
         },
         "subClasses" : [
            "c87",
            "c99"
         ],
         "superClasses" : [
            "c95"
         ],
         "type" : ""
      },
      {
         "id" : "c833",
         "position" : {
            "x" : 600,
            "y" : 1150
         },
         "size" : {
            "height" : 40,
            "width" : 40
         },
         "subClasses" : [
            "c99",
            "c103"
         ],
         "superClasses" : [
            "c79"
         ],
         "type" : ""
      },
      {
         "id" : "c899",
         "position" : {
            "x" : 740,
            "y" : 330
         },
         "size" : {
            "height" : 40,
            "width" : 40
         },
         "subClasses" : [
            "c79"
         ],
         "superClasses" : [
            "c55"
         ],
         "type" : ""
      },
      {
         "id" : "c947",
         "position" : {
            "x" : 30,
            "y" : 950
         },
         "size" : {
            "height" : 40,
            "width" : 40
         },
         "subClasses" : [
            "c103"
         ],
         "superClasses" : [
            "c91"
         ],
         "type" : ""
      }
   ]
}
